\begin{tikzpicture}
\pgfplotsset{every tick label/.append style={font=\small}}
\begin{axis}[
	xlabel=$t$ (\SI{}{\second}),
	ylabel=$v_y$ (\SI{}{\meter\per\second})
]

\addplot [solid,thick,green!50!black] table [x index={0}, y index={20},col sep=comma] {data/predictionserror.csv};
\addplot [red] table [x index={0}, y index={40},col sep=comma] {data/predictionserror.csv};


\end{axis}
\end{tikzpicture}