\begin{tikzpicture}
\pgfplotsset{every tick label/.append style={font=\small}}

\begin{axis}[
	xmin=0, xmax=10,
	xtick={0,5,10},
%	ymin=0, ymax=1,
	xlabel=$t$ (\SI{}{\second}),
	ylabel=$v_x$ (\SI{}{\meter\per\second})
%	no markers
]

\addplot [black,solid,thick] table [x index={0}, y index={3},col sep=comma] {data/filtering.csv};
\addplot [red,thick] table [x index={0}, y index={4},col sep=comma] {data/filtering.csv};


\end{axis}
\end{tikzpicture}